[{
    "id": 1,
    "name": "Vasos",
    "img": "images/vasos-plastico.png",
    "quantityLabel":"Vasos",
    "quantityPerCoffee":1,
    "price":{
        "pesos":{
            "price":2400,
            "quantity":50
        },
        "dolares":{
            "price":1,
            "quantity":50
        }
    }
}, {
    "id": 2,
    "name": "Mezcladores de café",
    "img": "images/mezcladores-cafe.png",
    "quantityLabel":"Unidades",
    "quantityPerCoffee":1,
    "price":{
        "pesos":{
            "price":4500,
            "quantity":1000
        },
        "dolares":{
            "price":1.5,
            "quantity":1000
        }
    }
}, {
    "id": 3,
    "name": "Azúcar",
    "img": "images/azucar.png",
    "quantityLabel":"Sobres",
    "quantityPerCoffee":2,
    "price":{
        "pesos":{
            "price":4700,
            "quantity":200
        },
        "dolares":{
            "price":2,
            "quantity":200
        }
    }
},{
    "id": 4,
    "name": "Agua",
    "img": "images/agua.png",
    "quantityLabel":"Litros",
    "quantityPerCoffee":-1,
    "water":true,
    "price":{
        "pesos":{
            "price":20000,
            "quantity":20
        },
        "dolares":{
            "price":7,
            "quantity":20
        }
    }
},{
    "id": 5,
    "name": "Leche",
    "img": "images/leche-ico.png",
    "quantityLabel":"Litros",
    "quantityPerCoffee":-1,
    "price":{
        "pesos":{
            "price":3100,
            "quantity":1
        },
        "dolares":{
            "price":1,
            "quantity":1
        }
    }
},{
    "id": 6,
    "name": "Vasos",
    "img": "images/vasos-plastico-generico.png",
    "quantityLabel":"Vasos",
    "quantityPerCoffee":1,
    "price":{
        "pesos":{
            "price":2400,
            "quantity":50
        },
        "dolares":{
            "price":1,
            "quantity":50
        }
    }
}]
